<?xml version="1.0" encoding="UTF-8" standalone="no"?>
<svg
   xmlns:dc="http://purl.org/dc/elements/1.1/"
   xmlns:cc="http://creativecommons.org/ns#"
   xmlns:rdf="http://www.w3.org/1999/02/22-rdf-syntax-ns#"
   xmlns:svg="http://www.w3.org/2000/svg"
   xmlns="http://www.w3.org/2000/svg"
   xmlns:sodipodi="http://sodipodi.sourceforge.net/DTD/sodipodi-0.dtd"
   xmlns:inkscape="http://www.inkscape.org/namespaces/inkscape"
   version="1.1"
   id="svg2277"
   sodipodi:docname="clay.svg"
   inkscape:version="0.92.2 5c3e80d, 2017-08-06">
  <metadata
     id="metadata2281">
    <rdf:RDF>
      <cc:Work
         rdf:about="">
        <dc:format>image/svg+xml</dc:format>
        <dc:type
           rdf:resource="http://purl.org/dc/dcmitype/StillImage" />
        <dc:title></dc:title>
      </cc:Work>
    </rdf:RDF>
  </metadata>
  <sodipodi:namedview
     pagecolor="#ffffff"
     bordercolor="#666666"
     borderopacity="1"
     objecttolerance="10"
     gridtolerance="10"
     guidetolerance="10"
     inkscape:pageopacity="0"
     inkscape:pageshadow="2"
     inkscape:window-width="1677"
     inkscape:window-height="942"
     id="namedview2279"
     showgrid="false"
     inkscape:zoom="1.668772"
     inkscape:cx="328.48427"
     inkscape:cy="-30.204389"
     inkscape:window-x="0"
     inkscape:window-y="0"
     inkscape:window-maximized="0"
     inkscape:current-layer="g2275" />
  <defs
     id="defs27">
    <linearGradient
       gradientUnits="userSpaceOnUse"
       x1="-819.2"
       x2="819.2"
       spreadMethod="pad"
       gradientTransform="matrix(-0.00686646,-0.00686646,0.02062988,-0.02062988,594.75012,156.10227)"
       id="gradient0">
      <stop
         offset="0"
         stop-color="#FFCC00"
         id="stop2" />
      <stop
         offset="1"
         stop-color="#ECBC00"
         id="stop4" />
    </linearGradient>
    <linearGradient
       gradientUnits="userSpaceOnUse"
       x1="-819.2"
       x2="819.2"
       spreadMethod="pad"
       gradientTransform="matrix(0,0.00567627,-0.01031494,0,385.65012,593.75227)"
       id="gradient1">
      <stop
         offset="0"
         stop-color="#FFCC00"
         id="stop7" />
      <stop
         offset="1"
         stop-color="#FF9900"
         id="stop9" />
    </linearGradient>
    <linearGradient
       gradientUnits="userSpaceOnUse"
       x1="-819.2"
       x2="819.2"
       spreadMethod="pad"
       gradientTransform="matrix(-0.00782776,-0.00782776,0.00932312,-0.00932312,297.65012,63.002271)"
       id="gradient2">
      <stop
         offset="0"
         stop-color="#B9C6C6"
         id="stop12" />
      <stop
         offset="1"
         stop-color="#D4E2E2"
         id="stop14" />
    </linearGradient>
    <linearGradient
       gradientUnits="userSpaceOnUse"
       x1="-819.2"
       x2="819.2"
       spreadMethod="pad"
       gradientTransform="matrix(0.0075531,-0.0075531,0.00932312,0.00932312,273.85012,62.202271)"
       id="gradient3">
      <stop
         offset="0"
         stop-color="#B9C6C6"
         id="stop17" />
      <stop
         offset="1"
         stop-color="#D4E2E2"
         id="stop19" />
    </linearGradient>
    <linearGradient
       gradientUnits="userSpaceOnUse"
       x1="-819.2"
       x2="819.2"
       spreadMethod="pad"
       gradientTransform="matrix(0,0.00567627,-0.01031494,0,346.00012,647.00227)"
       id="gradient4">
      <stop
         offset="0"
         stop-color="#FFCC00"
         id="stop22" />
      <stop
         offset="1"
         stop-color="#FF9900"
         id="stop24" />
    </linearGradient>
  </defs>
  <g
     id="g2275">
    <g
       id="g2378"
       transform="translate(26.366694,-80.89781)">
      <path
         style="fill:#464646;stroke:none"
         inkscape:connector-curvature="0"
         id="path1973"
         d="m -0.38246672,129.22713 -11.00000028,-5.15 -6.9,4.45 v 0.1 l -1.85,-0.85 0.1,-0.2 0.7,-0.7 6.9,-4.45 q 0.4,-0.3 0.95,-0.35 l 0.95,0.2 11.00000028,5.15 0.85000002,0.75 -1.70000002,1.1 v -0.05" />
      <path
         style="fill:#8a3f23;stroke:none"
         inkscape:connector-curvature="0"
         id="path1975"
         d="m -20.132467,127.77713 1.85,0.85 v 15.45 l 2.7,1.35 5.35,2.45 2.9500003,1.35 6.89999998,-8.15 v -11.8 l 1.70000002,-1.1 0.3,1.05 v 11.85 l -0.45,1.3 -6.9,8.15 q -0.45,0.5 -1.1,0.65 l -1.3,-0.15 -11.0000003,-5.15 -0.8,-0.7 q -0.35,-0.5 -0.35,-1.1 v -15.55 q 0,-0.4 0.15,-0.75" />
      <path
         style="fill:#d26f49;stroke:none"
         inkscape:connector-curvature="0"
         id="path1977"
         d="m -18.282467,128.62713 v -0.1 l 11.0000003,5.15 v 15.55 l -2.9500003,-1.35 v -8.05 l -5.35,-2.45 v 8.05 l -2.7,-1.35 v -15.45" />
      <path
         style="fill:#666666;stroke:none"
         inkscape:connector-curvature="0"
         id="path1979"
         d="m -15.582467,145.42713 v -8.05 l 5.35,2.45 v 8.05 l -5.35,-2.45" />
      <path
         style="fill:#808080;stroke:none"
         inkscape:connector-curvature="0"
         id="path1981"
         d="m -18.282467,128.52713 6.9,-4.45 11.00000028,5.15 -6.89999998,4.45 -11.0000003,-5.15" />
      <path
         style="fill:#bb5f3c;stroke:none"
         inkscape:connector-curvature="0"
         id="path1983"
         d="m -0.38246672,129.22713 v 0.05 11.8 l -6.89999998,8.15 v -15.55 l 6.89999998,-4.45" />
    </g>
  </g>
</svg>
